…
I’m going to start with the upload/submit/report logs again.
Recall that the deadline to print is the same calendar week as the upload.

library(dplyr)
library(tidyr)
library(purrr)
library(funneljoin)
library(lubridate)

logs <- readRDS("funneljoin-logs.RDS")
logs

## # A tibble: 1,759 x 3
##    date        user event 
##    <date>     <int> <chr> 
##  1 2020-01-06     1 upload
##  2 2020-01-06     2 upload
##  3 2020-01-06     3 upload
##  4 2020-01-06     4 upload
##  5 2020-01-06     5 upload
##  6 2020-01-06     6 upload
##  7 2020-01-06     7 upload
##  8 2020-01-06     8 upload
##  9 2020-01-06     9 upload
## 10 2020-01-06    10 upload
## # … with 1,749 more rows
…
  mutate(week = week(date)) %>%
  group_by(week) %>%
  funnel_start(
    moment_type = "upload",
    moment = "event",
    tstamp = "date",
    user = "user"
  ) %>%
  funnel_steps(
    moment_types = c("submit", "print"),
    type = "any-firstafter"
  ) %>%
  select(date_upload, date_print)

## # A tibble: 5,476 x 3
## # Groups:   week_upload.x.x [4]
##    week_upload.x.x date_upload date_print
##              <dbl> <date>      <date>    
##  1               1 2020-01-06  2020-01-24
##  2               1 2020-01-06  2020-01-31
##  3               1 2020-01-06  2020-01-24
##  4               1 2020-01-06  2020-01-31
##  5               1 2020-01-06  2020-01-24
##  6               1 2020-01-06  2020-01-31
##  7               1 2020-01-06  2020-01-24
##  8               1 2020-01-06  2020-01-31
##  9               1 2020-01-06  2020-01-24
## 10               1 2020-01-06  2020-01-31
## # … with 5,466 more rows
…
