…
Let’s take a look at some simulated1 customer usage logs.

library(dplyr)
library(funneljoin)
library(purrr)
library(tidyr)
library(lubridate)
library(ggplot2)

set.seed(24)

logs

## # A tibble: 187 x 3
##    date        user event 
##    <date>     <int> <chr> 
##  1 2020-01-06     1 upload
##  2 2020-01-06     2 upload
##  3 2020-01-06     3 upload
##  4 2020-01-06     4 upload
##  5 2020-01-06     5 upload
##  6 2020-01-06     6 upload
##  7 2020-01-06     7 upload
##  8 2020-01-06     8 upload
##  9 2020-01-06     9 upload
## 10 2020-01-06     1 upload
## # … with 177 more rows
…
