…
game_logs

## # A tibble: 126,946 x 12
##    game_id period game_clock  home  away margin location shot_result pts_type
##      <dbl>  <dbl>      <dbl> <dbl> <dbl>  <dbl> <chr>    <fct>          <dbl>
##  1  2.14e7      1       1740     0     0      0 A        missed             3
##  2  2.14e7      1       4500     2     0      2 H        made               2
##  3  2.14e7      1       4680     2     0      2 H        missed             2
##  4  2.14e7      1       5040     2     0      2 H        missed             2
##  5  2.14e7      1       6720     4     0      4 H        made               2
##  6  2.14e7      1       7320     4     0     -4 A        missed             2
##  7  2.14e7      1       7860     4     0      4 H        missed             2
##  8  2.14e7      1       9240     4     0      4 H        missed             3
##  9  2.14e7      1      11340     4     0     -4 A        missed             2
## 10  2.14e7      1      11460     4     0     -4 A        missed             2
## # … with 126,936 more rows, and 3 more variables: pts <dbl>, shot_type <chr>,
## #   player_name <chr>
…
