…
library(fabricatr)
library(tidyverse)
library(magrittr)

voters <- fabricate(
  N = 1000,
  group_id = rep(1:10, 100),
  ideology = draw_normal_icc(mean = 0, N = N, clusters = group_id, ICC = 0.7)
) %>%
  as_tibble()

voters

## # A tibble: 1,000 x 3
##    ID    group_id ideology
##    <chr>    <int>    <dbl>
##  1 0001         1   -0.258
##  2 0002         2   -4.43 
##  3 0003         3   -2.79 
##  4 0004         4    4.05 
##  5 0005         5    4.60 
##  6 0006         6    3.00 
##  7 0007         7   -1.12 
##  8 0008         8    0.300
##  9 0009         9   -2.24 
## 10 0010        10    0.350
## # … with 990 more rows

voters %<>%
  mutate(ideological_label = draw_ordered(
    x = ideology,
    break_labels = c(
      "Very Conservative", "Conservative",
      "Liberal", "Very Liberal"
    )
  ))

voters

## # A tibble: 1,000 x 4
##    ID    group_id ideology ideological_label
##    <chr>    <int>    <dbl> <fct>            
##  1 0001         1   -0.258 Conservative     
##  2 0002         2   -4.43  Very Conservative
##  3 0003         3   -2.79  Very Conservative
##  4 0004         4    4.05  Very Liberal     
##  5 0005         5    4.60  Very Liberal     
##  6 0006         6    3.00  Very Liberal     
##  7 0007         7   -1.12  Very Conservative
##  8 0008         8    0.300 Liberal          
##  9 0009         9   -2.24  Very Conservative
## 10 0010        10    0.350 Liberal          
## # … with 990 more rows
…
