…
## [1] 1 1

## # A tibble: 6 x 2
## # Rowwise: 
##      cs choices   
##   <int> <list>    
## 1     0 <chr [19]>
## 2     1 <chr [19]>
## 3     2 <chr [19]>
## 4     3 <chr [19]>
## 5     4 <chr [19]>
## 6     5 <chr [19]>

## # A tibble: 40 x 4
## # Rowwise: 
##       cs choices    p1    payoff
##    <int> <list>     <chr>  <dbl>
##  1     0 <chr [19]> c          0
##  2     0 <chr [19]> d         19
##  3     1 <chr [19]> c          3
##  4     1 <chr [19]> d         23
##  5     2 <chr [19]> c          6
##  6     2 <chr [19]> d         27
##  7     3 <chr [19]> c          9
##  8     3 <chr [19]> d         31
##  9     4 <chr [19]> c         12
## 10     4 <chr [19]> d         35
## # … with 30 more rows
…
