MRP Using brms and tidybayes | Tim Mastny
…
The left plot shows a lot of variation between the poststratified averages. The right plot1 indicates that every poststratified state average is pushed near zero. That’s not necessarily a problem in its down right, but we should still debug the model.

Within each state, each group is a certain percentage of the total populations. And the percentages of each group should add up to one, the entire state population:

Census %>%
  group_by(state) %>%
  summarise(percent = sum(cpercent.state)) %>%
  arrange(desc(percent))

## # A tibble: 51 x 2
##    state percent
##    <chr>   <dbl>
##  1    IN       1
##  2    MA       1
##  3    IL       1
##  4    NV       1
##  5    WY       1
##  6    KS       1
##  7    NH       1
##  8    NM       1
##  9    AK       1
## 10    ME       1
## # ... with 41 more rows
…
Although the parameter values differed between the approximate and the full Bayesian model, the predictions are near identical.

However, the point estimate in the Bayesian model doesn’t take full advantage of the posterior distribution brms and Stan calculate. For that, we can sample the posterior distribution for the entire census data 500 times and see the distribution of poststratified support for gay marriage within each state.

str(predict(bayes.mod, newdata=Census, allow_new_levels=TRUE, 
        nsamples=500, summary=FALSE))

##  int [1:500, 1:4896] 1 0 0 0 1 1 0 1 0 0 ...

bayes.mod %>%
  add_predicted_samples(newdata=Census, allow_new_levels=TRUE, n=500)

## # A tibble: 2,448,000 x 19
## # Groups:   state, p.evang, p.mormon, kerry.04, crace.WBH, age.cat,
## #   edu.cat, cfemale, .freq, cfreq.state, cpercent.state, region,
## #   race.female, age.edu.cat, p.relig, .row [4,896]
##    state p.evang p.mormon kerry.04 crace.WBH age.cat edu.cat cfemale .freq
##    <chr>   <dbl>    <dbl>    <dbl>     <int>   <int>   <int>   <int> <int>
##  1    AK   12.44 3.003126     35.5         1       1       1       0   467
##  2    AK   12.44 3.003126     35.5         1       1       1       0   467
##  3    AK   12.44 3.003126     35.5         1       1       1       0   467
##  4    AK   12.44 3.003126     35.5         1       1       1       0   467
##  5    AK   12.44 3.003126     35.5         1       1       1       0   467
##  6    AK   12.44 3.003126     35.5         1       1       1       0   467
##  7    AK   12.44 3.003126     35.5         1       1       1       0   467
##  8    AK   12.44 3.003126     35.5         1       1       1       0   467
##  9    AK   12.44 3.003126     35.5         1       1       1       0   467
## 10    AK   12.44 3.003126     35.5         1       1       1       0   467
## # ... with 2,447,990 more rows, and 10 more variables: cfreq.state <dbl>,
## #   cpercent.state <dbl>, region <chr>, race.female <dbl>,
## #   age.edu.cat <dbl>, p.relig <dbl>, .row <int>, .chain <int>,
## #   .iteration <int>, pred <int>
…
